iterations,winrate
0,-nan
0,-nan
0,-nan
0,-nan
0,-nan
0,-nan
0,-nan
0,-nan
0,-nan
0,-nan
2,50
2,0
2,100
2,50
2,0
2,50
2,0
2,0
2,0
2,0
4,25
4,0
4,25
4,25
4,25
4,50
4,0
4,50
4,50
4,50
6,50
6,16.6667
6,50
6,16.6667
6,0
6,33.3333
6,0
6,0
6,50
6,0
8,12.5
8,12.5
8,12.5
8,25
8,25
8,12.5
8,12.5
8,12.5
8,12.5
8,25
10,10
10,20
10,30
10,50
10,30
10,10
10,10
10,20
10,30
10,30
12,41.6667
12,16.6667
12,33.3333
12,8.33333
12,25
12,16.6667
12,16.6667
12,33.3333
12,16.6667
12,25
14,21.4286
14,42.8571
14,21.4286
14,14.2857
14,28.5714
14,14.2857
14,14.2857
14,14.2857
14,21.4286
14,42.8571
16,18.75
16,31.25
16,12.5
16,37.5
16,25
16,31.25
16,31.25
16,31.25
16,25
16,12.5
18,38.8889
18,16.6667
18,16.6667
18,33.3333
18,22.2222
18,16.6667
18,22.2222
18,11.1111
18,22.2222
18,33.3333
20,25
20,20
20,25
20,20
20,40
20,30
20,25
20,5
20,25
20,15
22,40.9091
22,27.2727
22,13.6364
22,22.7273
22,22.7273
22,9.09091
22,36.3636
22,22.7273
22,22.7273
22,27.2727
24,25
24,12.5
24,29.1667
24,33.3333
24,16.6667
24,20.8333
24,25
24,12.5
24,12.5
24,33.3333
26,19.2308
26,30.7692
26,23.0769
26,23.0769
26,34.6154
26,23.0769
26,23.0769
26,26.9231
26,15.3846
26,19.2308
28,25
28,14.2857
28,21.4286
28,28.5714
28,32.1429
28,28.5714
28,28.5714
28,14.2857
28,21.4286
28,17.8571
30,23.3333
30,13.3333
30,16.6667
30,36.6667
30,20
30,16.6667
30,20
30,40
30,20
30,36.6667
32,28.125
32,28.125
32,12.5
32,28.125
32,31.25
32,28.125
32,18.75
32,37.5
32,25
32,12.5
34,23.5294
34,38.2353
34,23.5294
34,38.2353
34,17.6471
34,26.4706
34,26.4706
34,29.4118
34,14.7059
34,26.4706
36,25
36,27.7778
36,27.7778
36,44.4444
36,27.7778
36,27.7778
36,33.3333
36,25
36,22.2222
36,19.4444
38,13.1579
38,23.6842
38,21.0526
38,18.4211
38,18.4211
38,21.0526
38,28.9474
38,13.1579
38,28.9474
38,28.9474
40,32.5
40,22.5
40,20
40,27.5
40,20
40,15
40,25
40,25
40,22.5
40,20
42,21.4286
42,40.4762
42,19.0476
42,21.4286
42,23.8095
42,21.4286
42,23.8095
42,21.4286
42,23.8095
42,16.6667
44,25
44,20.4545
44,25
44,29.5455
44,27.2727
44,36.3636
44,22.7273
44,36.3636
44,20.4545
44,25
46,28.2609
46,28.2609
46,26.087
46,34.7826
46,28.2609
46,19.5652
46,26.087
46,36.9565
46,19.5652
46,15.2174
48,29.1667
48,29.1667
48,16.6667
48,20.8333
48,25
48,25
48,22.9167
48,12.5
48,29.1667
48,33.3333
50,28
50,20
50,30
50,22
50,24
50,22
50,20
50,24
50,14
50,38
52,28.8462
52,21.1538
52,40.3846
52,28.8462
52,25
52,28.8462
52,15.3846
52,15.3846
52,17.3077
52,15.3846
54,24.0741
54,12.963
54,18.5185
54,22.2222
54,27.7778
54,25.9259
54,16.6667
54,31.4815
54,16.6667
54,25.9259
56,8.92857
56,23.2143
56,21.4286
56,19.6429
56,26.7857
56,28.5714
56,17.8571
56,23.2143
56,23.2143
56,21.4286
58,22.4138
58,25.8621
58,22.4138
58,24.1379
58,22.4138
58,18.9655
58,41.3793
58,36.2069
58,29.3103
58,20.6897
60,26.6667
60,23.3333
60,13.3333
60,20
60,15
60,13.3333
60,23.3333
60,25
60,23.3333
60,15
62,19.3548
62,24.1935
62,29.0323
62,22.5806
62,25.8064
62,16.129
62,32.2581
62,29.0323
62,29.0323
62,16.129
64,23.4375
64,28.125
64,32.8125
64,28.125
64,21.875
64,26.5625
64,25
64,15.625
64,26.5625
64,15.625
66,33.3333
66,24.2424
66,21.2121
66,24.2424
66,22.7273
66,27.2727
66,21.2121
66,24.2424
66,27.2727
66,24.2424
68,25
68,33.8235
68,29.4118
68,33.8235
68,27.9412
68,17.6471
68,23.5294
68,27.9412
68,16.1765
68,26.4706
70,21.4286
70,22.8571
70,25.7143
70,20
70,22.8571
70,24.2857
70,24.2857
70,18.5714
70,25.7143
70,22.8571
72,29.1667
72,18.0556
72,26.3889
72,20.8333
72,33.3333
72,25
72,19.4444
72,36.1111
72,20.8333
72,22.2222
74,22.973
74,27.027
74,32.4324
74,22.973
74,21.6216
74,21.6216
74,24.3243
74,28.3784
74,22.973
74,24.3243
76,30.2632
76,38.1579
76,26.3158
76,22.3684
76,18.4211
76,21.0526
76,22.3684
76,32.8947
76,21.0526
76,38.1579
78,20.5128
78,24.359
78,19.2308
78,12.8205
78,26.9231
78,30.7692
78,24.359
78,20.5128
78,24.359
78,23.0769
80,36.25
80,18.75
80,30
80,26.25
80,22.5
80,17.5
80,30
80,18.75
80,26.25
80,21.25
82,26.8293
82,24.3902
82,31.7073
82,25.6098
82,29.2683
82,26.8293
82,26.8293
82,21.9512
82,18.2927
82,21.9512
84,25
84,26.1905
84,30.9524
84,17.8571
84,25
84,21.4286
84,20.2381
84,20.2381
84,21.4286
84,21.4286
86,24.4186
86,20.9302
86,29.0698
86,24.4186
86,25.5814
86,20.9302
86,26.7442
86,24.4186
86,29.0698
86,30.2326
88,27.2727
88,25
88,28.4091
88,26.1364
88,28.4091
88,22.7273
88,25
88,25
88,18.1818
88,31.8182
90,23.3333
90,20
90,26.6667
90,27.7778
90,23.3333
90,25.5556
90,18.8889
90,28.8889
90,22.2222
90,28.8889
92,28.2609
92,33.6957
92,22.8261
92,25
92,17.3913
92,23.913
92,28.2609
92,20.6522
92,30.4348
92,17.3913
94,24.4681
94,27.6596
94,31.9149
94,23.4043
94,20.2128
94,26.5957
94,30.8511
94,27.6596
94,22.3404
94,24.4681
96,32.2917
96,23.9583
96,20.8333
96,18.75
96,23.9583
96,26.0417
96,23.9583
96,27.0833
96,18.75
96,22.9167
98,17.3469
98,11.2245
98,28.5714
98,26.5306
98,22.449
98,25.5102
98,20.4082
98,20.4082
98,19.3878
98,19.3878
100,19
100,26
100,22
100,30
100,29
100,28
100,26
100,19
100,24
100,33
102,30.3922
102,24.5098
102,20.5882
102,29.4118
102,31.3726
102,24.5098
102,22.549
102,23.5294
102,20.5882
102,24.5098
104,29.8077
104,21.1538
104,24.0385
104,24.0385
104,24.0385
104,18.2692
104,33.6538
104,24.0385
104,21.1538
104,25
106,17.9245
106,21.6981
106,23.5849
106,20.7547
106,32.0755
106,17.9245
106,23.5849
106,20.7547
106,25.4717
106,28.3019
108,29.6296
108,20.3704
108,23.1481
108,36.1111
108,26.8519
108,17.5926
108,21.2963
108,29.6296
108,19.4444
108,19.4444
110,25.4545
110,28.1818
110,28.1818
110,19.0909
110,29.0909
110,22.7273
110,26.3636
110,30.9091
110,25.4545
110,21.8182
112,27.6786
112,27.6786
112,29.4643
112,33.0357
112,25.8929
112,25.8929
112,33.9286
112,18.75
112,25.8929
112,31.25
114,26.3158
114,27.193
114,20.1754
114,28.9474
114,28.0702
114,19.2982
114,19.2982
114,26.3158
114,23.6842
114,23.6842
116,25
116,18.9655
116,26.7241
116,24.1379
116,19.8276
116,25
116,29.3103
116,18.1034
116,18.9655
116,25.8621
118,22.8814
118,30.5085
118,29.661
118,23.7288
118,27.1186
118,29.661
118,33.0508
118,28.8136
118,25.4237
118,23.7288
120,25.8333
120,26.6667
120,28.3333
120,25
120,35
120,22.5
120,24.1667
120,28.3333
120,31.6667
120,22.5
122,23.7705
122,23.7705
122,26.2295
122,22.9508
122,18.0328
122,25.4098
122,30.3279
122,30.3279
122,29.5082
122,27.0492
124,24.1935
124,20.1613
124,25
124,27.4194
124,20.9677
124,20.9677
124,17.7419
124,26.6129
124,25
124,25
126,19.0476
126,31.746
126,20.6349
126,23.0159
126,20.6349
126,29.3651
126,16.6667
126,24.6032
126,21.4286
126,29.3651
128,20.3125
128,21.875
128,29.6875
128,25
128,25
128,26.5625
128,27.3438
128,23.4375
128,21.875
128,17.9688
130,16.1538
130,23.8462
130,26.1538
130,25.3846
130,28.4615
130,26.1538
130,21.5385
130,21.5385
130,26.9231
130,23.8462
132,21.9697
132,25.7576
132,21.2121
132,26.5152
132,23.4848
132,22.7273
132,28.7879
132,20.4545
132,21.2121
132,19.697
134,26.1194
134,26.8657
134,32.0896
134,25.3731
134,16.4179
134,27.6119
134,26.8657
134,26.8657
134,26.1194
134,24.6269
136,27.9412
136,22.0588
136,26.4706
136,18.3824
136,28.6765
136,17.6471
136,28.6765
136,22.0588
136,25.7353
136,22.0588
138,26.087
138,30.4348
138,23.913
138,26.087
138,23.1884
138,26.8116
138,27.5362
138,24.6377
138,26.087
138,26.087
140,22.8571
140,25
140,26.4286
140,22.8571
140,28.5714
140,20.7143
140,23.5714
140,23.5714
140,21.4286
140,28.5714
142,24.6479
142,28.8732
142,24.6479
142,26.7606
142,22.5352
142,26.7606
142,28.8732
142,19.0141
142,28.169
142,21.1268
144,22.2222
144,22.9167
144,20.1389
144,22.2222
144,28.4722
144,23.6111
144,25
144,22.9167
144,25.6944
144,22.9167
146,15.7534
146,23.2877
146,29.4521
146,26.7123
146,21.2329
146,28.7671
146,23.9726
146,28.0822
146,27.3973
146,27.3973
148,27.7027
148,20.9459
148,32.4324
148,31.0811
148,29.0541
148,29.0541
148,29.0541
148,30.4054
148,27.7027
148,26.3514
150,22.6667
150,25.3333
150,26
150,18
150,20.6667
150,22.6667
150,26
150,15.3333
150,22.6667
150,34
152,26.3158
152,24.3421
152,18.4211
152,25
152,20.3947
152,26.3158
152,19.0789
152,27.6316
152,21.0526
152,25.6579
154,24.6753
154,25.3247
154,31.8182
154,23.3766
154,24.6753
154,24.026
154,22.0779
154,24.6753
154,27.9221
154,27.9221
156,24.359
156,23.7179
156,19.8718
156,26.2821
156,28.8462
156,25
156,22.4359
156,25
156,33.3333
156,25.641
158,18.9873
158,29.7468
158,25.9494
158,25.9494
158,28.481
158,20.2532
158,28.481
158,24.6835
158,24.0506
158,21.519
160,31.25
160,26.875
160,30
160,26.875
160,28.75
160,25
160,26.875
160,24.375
160,20.625
160,24.375
162,20.3704
162,26.5432
162,19.1358
162,26.5432
162,23.4568
162,26.5432
162,25.3086
162,22.2222
162,17.9012
162,29.6296
164,25
164,28.0488
164,21.3415
164,21.9512
164,26.2195
164,19.5122
164,25
164,27.439
164,24.3902
164,21.9512
166,25.9036
166,24.0964
166,28.9157
166,24.0964
166,24.0964
166,25.9036
166,26.506
166,25.3012
166,26.506
166,23.494
168,27.381
168,24.4048
168,22.0238
168,27.381
168,21.4286
168,22.0238
168,17.8571
168,20.8333
168,23.2143
168,28.5714
170,26.4706
170,21.7647
170,22.3529
170,21.7647
170,21.1765
170,24.1176
170,24.1176
170,27.0588
170,31.7647
170,27.0588
172,20.3488
172,27.3256
172,20.9302
172,25
172,24.4186
172,24.4186
172,22.6744
172,28.4884
172,24.4186
172,23.2558
174,17.8161
174,23.5632
174,26.4368
174,26.4368
174,25.2874
174,20.1149
174,20.6897
174,25.2874
174,24.7126
174,19.5402
176,23.2955
176,19.3182
176,26.7045
176,22.1591
176,22.7273
176,24.4318
176,22.1591
176,28.9773
176,22.1591
176,19.3182
178,26.4045
178,22.4719
178,28.0899
178,25.8427
178,21.9101
178,26.9663
178,24.1573
178,24.7191
178,26.4045
178,25.2809
180,21.6667
180,25
180,27.7778
180,25.5556
180,25
180,26.6667
180,22.2222
180,22.7778
180,22.7778
180,25.5556
182,24.1758
182,24.7253
182,23.0769
182,28.022
182,21.978
182,23.6264
182,22.5275
182,18.6813
182,32.967
182,22.5275
184,22.2826
184,22.8261
184,23.3696
184,22.2826
184,25
184,16.3043
184,25.5435
184,25
184,26.087
184,21.7391
186,22.5806
186,27.4194
186,26.8817
186,27.957
186,30.6452
186,20.4301
186,23.1183
186,19.3548
186,29.5699
186,27.4194
188,28.7234
188,26.0638
188,20.7447
188,20.2128
188,20.2128
188,28.7234
188,25.5319
188,27.6596
188,26.5957
188,27.6596
190,23.1579
190,21.0526
190,25.7895
190,20.5263
190,26.3158
190,21.5789
190,22.6316
190,18.4211
190,25.7895
190,26.8421
192,26.5625
192,22.9167
192,23.4375
192,26.5625
192,25.5208
192,20.3125
192,25
192,23.9583
192,20.3125
192,19.2708
194,23.7113
194,21.134
194,26.2887
194,20.6186
194,32.4742
194,25.2577
194,25.2577
194,27.8351
194,25.2577
194,25.7732
196,19.3878
196,24.4898
196,28.0612
196,27.0408
196,20.4082
196,21.9388
196,25.5102
196,27.551
196,26.0204
196,24.4898
198,27.2727
198,26.7677
198,26.7677
198,27.2727
198,23.7374
198,28.7879
198,22.7273
198,23.2323
198,26.2626
198,29.798
200,24
200,26.5
200,22.5
200,21.5
200,19.5
200,24
200,22
200,25
200,22.5
200,22.5
202,22.2772
202,21.7822
202,20.297
202,24.7525
202,26.2376
202,21.2871
202,27.7228
202,32.1782
202,22.7723
202,23.2673
204,28.4314
204,17.6471
204,24.0196
204,23.5294
204,26.4706
204,29.902
204,20.5882
204,27.451
204,25.9804
204,25
206,27.1845
206,22.8155
206,24.7573
206,20.8738
206,26.2136
206,25.2427
206,26.699
206,27.1845
206,22.3301
206,25.7282
208,24.0385
208,27.8846
208,18.75
208,26.4423
208,25.9615
208,24.5192
208,26.9231
208,27.8846
208,23.0769
208,26.4423
210,28.0952
210,23.3333
210,22.381
210,24.7619
210,25.7143
210,26.6667
210,22.381
210,22.381
210,25.7143
210,23.3333
212,27.3585
212,21.6981
212,23.5849
212,26.8868
212,23.5849
212,25
212,23.1132
212,20.7547
212,25.4717
212,29.717
214,30.8411
214,27.5701
214,21.9626
214,25.2336
214,23.8318
214,26.1682
214,23.8318
214,27.1028
214,19.6262
214,29.9065
216,17.1296
216,21.2963
216,19.9074
216,18.9815
216,25.463
216,30.5556
216,24.0741
216,29.1667
216,21.2963
216,29.1667
218,25.2294
218,23.3945
218,22.9358
218,17.4312
218,21.5596
218,22.4771
218,22.4771
218,22.9358
218,24.7706
218,30.2752
220,26.8182
220,22.2727
220,26.3636
220,28.6364
220,21.8182
220,21.8182
220,23.6364
220,33.1818
220,24.0909
220,24.0909
222,21.1712
222,22.0721
222,24.7748
222,30.6306
222,18.9189
222,27.9279
222,24.7748
222,22.0721
222,21.6216
222,21.6216
224,26.3393
224,23.6607
224,25.4464
224,23.2143
224,19.1964
224,24.1071
224,25
224,26.3393
224,23.6607
224,27.6786
226,26.1062
226,25.2212
226,28.3186
226,25.6637
226,23.0089
226,25.6637
226,20.7965
226,28.3186
226,21.6814
226,26.9911
228,25.8772
228,26.3158
228,26.3158
228,27.193
228,19.7368
228,25.4386
228,26.3158
228,25.8772
228,22.807
228,21.9298
230,30.4348
230,25.2174
230,20.4348
230,23.4783
230,23.913
230,22.6087
230,22.1739
230,23.4783
230,25.6522
230,29.1304
232,26.7241
232,21.9828
232,28.8793
232,24.1379
232,16.8103
232,27.5862
232,22.8448
232,23.7069
232,26.2931
232,25
234,25.641
234,21.7949
234,28.6325
234,24.359
234,24.359
234,23.0769
234,26.4957
234,22.6496
234,23.0769
234,21.3675
236,22.8814
236,25.4237
236,22.8814
236,28.3898
236,24.1525
236,22.4576
236,25
236,19.9153
236,24.1525
236,28.3898
238,21.8487
238,24.3697
238,20.5882
238,19.3277
238,24.7899
238,24.7899
238,19.3277
238,21.4286
238,24.7899
238,22.6891
240,24.1667
240,25
240,23.75
240,24.1667
240,25.8333
240,24.1667
240,27.0833
240,27.5
240,26.25
240,25
242,29.7521
242,23.1405
242,21.4876
242,26.4463
242,29.3388
242,30.9917
242,19.0083
242,20.6612
242,23.5537
242,23.9669
244,30.7377
244,18.4426
244,26.6393
244,25
244,27.459
244,22.1311
244,20.4918
244,29.0984
244,25
244,28.2787
246,22.7642
246,24.3902
246,22.3577
246,22.7642
246,22.7642
246,22.3577
246,26.4228
246,20.7317
246,27.2358
246,26.8293
248,25.8064
248,25.4032
248,24.1935
248,33.871
248,20.5645
248,25
248,22.5806
248,28.2258
248,24.1935
248,18.5484
250,26.8
250,25.2
250,24.4
250,28.4
250,27.2
250,24.8
250,26.4
250,22.8
250,23.2
250,25.2
252,26.9841
252,28.1746
252,24.2063
252,24.2063
252,22.619
252,25.3968
252,18.6508
252,17.0635
252,25.3968
252,21.8254
254,23.2283
254,23.622
254,23.622
254,24.4094
254,26.378
254,22.0472
254,24.0157
254,22.0472
254,27.1654
254,29.1339
256,26.1719
256,23.0469
256,29.6875
256,27.3438
256,24.2188
256,20.3125
256,27.3438
256,25
256,20.3125
256,22.2656
258,27.1318
258,20.155
258,31.7829
258,24.4186
258,19.7674
258,23.6434
258,20.9302
258,24.4186
258,21.7054
258,22.8682
260,25.7692
260,21.5385
260,25
260,27.6923
260,24.6154
260,23.8462
260,26.5385
260,18.8462
260,26.9231
260,20
262,21.7557
262,21.7557
262,25.1908
262,24.0458
262,27.0992
262,27.4809
262,20.229
262,22.9008
262,30.1527
262,23.2824
264,24.6212
264,26.1364
264,22.3485
264,25.7576
264,25.7576
264,28.0303
264,25
264,21.9697
264,25
264,23.4848
266,27.8195
266,22.9323
266,23.3083
266,23.6842
266,24.4361
266,26.6917
266,22.1805
266,24.4361
266,21.4286
266,28.9474
268,24.2537
268,23.1343
268,23.5075
268,22.0149
268,25.3731
268,24.2537
268,21.2687
268,29.8507
268,23.8806
268,22.7612
270,25.9259
270,30
270,27.037
270,20.3704
270,25.5556
270,26.6667
270,18.8889
270,28.8889
270,24.0741
270,22.5926
272,22.7941
272,26.8382
272,30.8824
272,20.5882
272,24.2647
272,23.5294
272,29.4118
272,26.1029
272,23.5294
272,23.1618
274,21.1679
274,27.0073
274,21.8978
274,21.5328
274,27.7372
274,26.2774
274,23.3577
274,22.2628
274,22.6277
274,23.3577
276,26.087
276,25.3623
276,29.7101
276,27.8986
276,25.3623
276,26.8116
276,27.1739
276,27.8986
276,25
276,26.4493
278,24.8201
278,21.223
278,22.6619
278,19.7842
278,27.3381
278,23.0216
278,28.0576
278,20.5036
278,26.6187
278,25.8993
280,29.2857
280,20.3571
280,25.7143
280,22.5
280,26.7857
280,23.9286
280,20.3571
280,22.5
280,23.2143
280,25.7143
282,21.6312
282,26.2411
282,23.7589
282,25.5319
282,25.5319
282,26.5957
282,25.1773
282,22.695
282,27.6596
282,28.3688
284,21.1268
284,22.1831
284,25
284,28.5211
284,29.5775
284,21.831
284,25
284,21.831
284,26.0563
284,24.2958
286,23.4266
286,25.8741
286,24.4755
286,22.028
286,26.9231
286,25.1748
286,25.1748
286,22.7273
286,23.4266
286,30.0699
288,27.4306
288,22.2222
288,31.25
288,24.3056
288,24.3056
288,26.7361
288,26.7361
288,26.3889
288,24.6528
288,28.125
290,23.1034
290,29.6552
290,22.069
290,26.8966
290,23.4483
290,19.3103
290,22.069
290,23.7931
290,23.4483
290,25.8621
292,28.4247
292,29.4521
292,27.0548
292,29.1096
292,25
292,22.9452
292,24.6575
292,25.3425
292,27.3973
292,27.0548
294,25.1701
294,25.5102
294,24.8299
294,23.8095
294,28.5714
294,22.7891
294,25.1701
294,22.7891
294,23.1293
294,23.8095
296,25
296,25.6757
296,21.6216
296,28.0405
296,25.3378
296,25
296,30.7432
296,21.6216
296,26.3514
296,26.6892
298,24.1611
298,25.1678
298,22.4832
298,21.8121
298,20.8054
298,23.1544
298,26.5101
298,25.5034
298,23.8255
298,23.4899
300,27
300,21.6667
300,24.3333
300,23.3333
300,24.3333
300,29.3333
300,22.6667
300,22.3333
300,23.6667
300,25
302,24.8344
302,23.5099
302,22.8477
302,23.8411
302,26.4901
302,19.2053
302,23.1788
302,22.1854
302,26.8212
302,25.4967
304,25.3289
304,30.5921
304,27.6316
304,25.9868
304,24.6711
304,24.3421
304,27.6316
304,26.9737
304,26.9737
304,25.6579
306,21.5686
306,26.1438
306,26.1438
306,24.8366
306,23.5294
306,20.2614
306,21.8954
306,23.2026
306,24.5098
306,25.1634
308,25
308,22.7273
308,24.6753
308,24.026
308,25.3247
308,23.0519
308,24.6753
308,25
308,19.8052
308,22.7273
310,24.5161
310,21.9355
310,22.5806
310,25.8064
310,24.1935
310,23.871
310,25.4839
310,21.9355
310,23.2258
310,24.8387
312,21.4744
312,26.6026
312,27.2436
312,22.1154
312,23.7179
312,22.4359
312,23.3974
312,25.9615
312,21.1538
312,22.4359
314,23.8853
314,25.1592
314,28.3439
314,21.9745
314,24.5223
314,26.4331
314,24.5223
314,26.1146
314,29.2994
314,22.9299
316,24.6835
316,29.7468
316,23.7342
316,25
316,26.8987
316,31.0127
316,27.8481
316,31.3291
316,22.4684
316,27.5316
318,22.6415
318,27.044
318,26.1006
318,22.6415
318,27.9874
318,24.2138
318,23.2704
318,27.673
318,25.1572
318,25.7862
320,21.875
320,25.9375
320,27.5
320,26.875
320,26.25
320,24.375
320,30.3125
320,24.0625
320,28.4375
320,28.75
322,24.5342
322,22.3602
322,25.7764
322,25.4658
322,21.118
322,22.0497
322,24.5342
322,24.2236
322,28.5714
322,24.2236
324,23.7654
324,26.8519
324,23.7654
324,23.1481
324,27.1605
324,26.5432
324,23.7654
324,23.1481
324,24.6914
324,25
326,23.9264
326,25.7669
326,25.4601
326,23.3129
326,22.3926
326,27.3006
326,23.0061
326,23.0061
326,24.5399
326,22.6994
328,22.561
328,23.1707
328,25.3049
328,29.878
328,24.3902
328,25.3049
328,21.6463
328,25.6098
328,26.2195
328,25
330,23.3333
330,30
330,28.4848
330,22.4242
330,23.0303
330,26.3636
330,25.1515
330,26.9697
330,26.0606
330,22.7273
332,29.5181
332,25
332,25.3012
332,21.3855
332,21.988
332,25
332,25.6024
332,24.3976
332,22.5904
332,23.1928
334,25.7485
334,24.2515
334,23.9521
334,26.3473
334,23.9521
334,28.7425
334,26.6467
334,22.1557
334,23.3533
334,24.2515
336,24.4048
336,20.8333
336,25.5952
336,22.619
336,26.1905
336,24.1071
336,25.8929
336,24.7024
336,26.1905
336,23.2143
338,26.9231
338,21.3018
338,25.7396
338,20.4142
338,26.9231
338,29.5858
338,25.4438
338,25.1479
338,23.0769
338,24.8521
340,20
340,22.6471
340,25.5882
340,24.4118
340,22.3529
340,22.6471
340,23.2353
340,25.8824
340,25.5882
340,22.6471
342,26.6082
342,25.731
342,22.5146
342,28.3626
342,23.9766
342,25.4386
342,26.6082
342,28.0702
342,23.9766
342,25.731
344,22.093
344,22.093
344,25.2907
344,21.5116
344,26.1628
344,19.4767
344,21.5116
344,24.1279
344,21.8023
344,28.7791
346,26.8786
346,27.4566
346,25.4335
346,26.3006
346,25.1445
346,22.2543
346,23.4104
346,25.1445
346,28.3237
346,22.2543
348,26.1494
348,25.5747
348,26.7241
348,25
348,25.5747
348,22.7011
348,25.2874
348,26.7241
348,21.5517
348,22.1264
350,20.5714
350,25.4286
350,24.8571
350,26.2857
350,25.7143
350,29.4286
350,25.7143
350,24.5714
350,27.7143
350,21.4286
352,25.8523
352,22.1591
352,28.4091
352,24.1477
352,25.2841
352,27.2727
352,25.2841
352,25
352,24.7159
352,29.8295
354,24.5763
354,24.2938
354,24.2938
354,25.7062
354,23.1638
354,28.8136
354,22.0339
354,28.2486
354,26.2712
354,22.0339
356,26.4045
356,26.6854
356,25
356,21.3483
356,25
356,26.9663
356,28.0899
356,25.5618
356,21.0674
356,22.191
358,28.4916
358,25.419
358,25.9777
358,24.581
358,21.5084
358,20.9497
358,22.6257
358,27.6536
358,26.257
358,22.6257
360,25
360,24.4444
360,22.7778
360,25.5556
360,24.1667
360,25.8333
360,22.5
360,25.2778
360,20.2778
360,27.5
362,24.3094
362,29.2818
362,23.2044
362,22.3757
362,24.3094
362,28.1768
362,27.6243
362,25.1381
362,22.9282
362,24.5856
364,27.4725
364,20.8791
364,23.9011
364,21.978
364,22.2527
364,24.1758
364,27.4725
364,24.7253
364,26.3736
364,24.7253
366,22.4044
366,25.1366
366,25.9563
366,25.4098
366,22.6776
366,26.2295
366,27.0492
366,22.9508
366,24.8634
366,21.0382
368,27.1739
368,24.7283
368,23.3696
368,24.7283
368,29.3478
368,24.4565
368,24.7283
368,24.4565
368,22.8261
368,25
370,26.7568
370,27.027
370,26.7568
370,22.7027
370,25.1351
370,25.1351
370,25.9459
370,26.4865
370,26.4865
370,26.2162
372,24.1935
372,25
372,27.1505
372,25.2688
372,26.0753
372,24.1935
372,22.5806
372,25.8064
372,24.7312
372,23.3871
374,24.0642
374,27.0053
374,27.5401
374,26.4706
374,22.4599
374,22.4599
374,27.2727
374,24.5989
374,23.262
374,25.6684
376,26.5957
376,25.7979
376,25.5319
376,25
376,25.7979
376,23.6702
376,25.5319
376,23.9362
376,26.5957
376,24.4681
378,25.9259
378,26.1905
378,26.9841
378,24.8677
378,24.6032
378,22.7513
378,24.0741
378,27.2487
378,21.6931
378,24.6032
380,27.1053
380,23.9474
380,21.3158
380,28.9474
380,21.3158
380,21.0526
380,25.2632
380,25.5263
380,23.9474
380,23.4211
382,22.5131
382,26.9634
382,30.1047
382,26.7016
382,27.7487
382,26.4398
382,22.7749
382,24.6073
382,25.6544
382,24.3456
384,25.7812
384,22.6562
384,27.8646
384,25.2604
384,24.7396
384,22.6562
384,25.7812
384,23.6979
384,23.1771
384,24.2188
386,28.7565
386,23.8342
386,20.4663
386,24.8705
386,24.3523
386,25.9067
386,24.6114
386,22.2798
386,26.4249
386,29.0155
388,26.8041
388,26.2887
388,28.0928
388,26.5464
388,26.2887
388,24.4845
388,27.0619
388,27.3196
388,22.9381
388,18.8144
390,26.4103
390,29.4872
390,27.4359
390,25.3846
390,29.7436
390,24.1026
390,25.8974
390,25.641
390,23.8462
390,24.8718
392,25
392,25.2551
392,25.2551
392,24.2347
392,26.7857
392,24.2347
392,24.4898
392,25.7653
392,28.5714
392,22.449
394,27.1574
394,26.9036
394,23.0964
394,24.6193
394,27.665
394,21.3198
394,24.1117
394,25.1269
394,22.8426
394,24.8731
396,23.9899
396,24.7475
396,21.7172
396,25.5051
396,24.7475
396,23.9899
396,23.4848
396,26.2626
396,25.2525
396,24.4949
398,23.8693
398,24.3719
398,23.6181
398,23.6181
398,23.6181
398,31.407
398,24.8744
398,27.6382
398,28.8945
398,23.6181
400,26
400,20.5
400,25
400,25.5
400,26.25
400,28.25
400,20.75
400,23.25
400,23.25
400,24.5
402,26.8657
402,24.8756
402,21.8905
402,25.8706
402,28.3582
402,24.1294
402,28.1095
402,21.393
402,23.6318
402,24.8756
404,26.2376
404,22.2772
404,27.9703
404,27.7228
404,23.2673
404,24.7525
404,23.2673
404,24.505
404,26.4851
404,25.2475
406,24.6305
406,23.1527
406,26.8473
406,19.9507
406,25.6158
406,24.3842
406,20.936
406,21.4286
406,23.1527
406,22.1675
408,21.3235
408,26.4706
408,25.4902
408,26.2255
408,25.4902
408,27.451
408,25.4902
408,22.0588
408,26.2255
408,27.6961
410,27.0732
410,22.1951
410,22.9268
410,26.3415
410,23.6585
410,24.1463
410,22.1951
410,21.7073
410,27.0732
410,26.0976
412,23.301
412,24.5146
412,24.2718
412,25.7282
412,28.3981
412,25.2427
412,24.5146
412,29.3689
412,25.7282
412,23.0583
414,24.6377
414,24.3961
414,24.6377
414,23.6715
414,24.6377
414,22.7053
414,26.8116
414,26.57
414,27.2947
414,23.43
416,22.5962
416,26.6827
416,26.9231
416,21.1538
416,20.4327
416,25
416,24.0385
416,27.8846
416,23.0769
416,26.4423
418,25.8373
418,27.0335
418,24.4019
418,27.2727
418,22.488
418,23.9234
418,28.2297
418,27.7512
418,27.2727
418,22.9665
420,24.0476
420,27.381
420,25.4762
420,22.1429
420,27.1429
420,25.7143
420,25
420,23.0952
420,25.4762
420,20.9524
422,23.9336
422,24.8815
422,21.564
422,23.6967
422,23.2227
422,22.2749
422,25.1185
422,24.4076
422,27.7251
422,25.8294
424,23.5849
424,24.2925
424,27.8302
424,22.6415
424,19.1038
424,27.5943
424,26.4151
424,24.5283
424,29.0094
424,23.5849
426,23.2394
426,19.9531
426,22.77
426,22.77
426,24.6479
426,23.7089
426,21.5962
426,21.831
426,28.8732
426,23.2394
428,27.8037
428,21.4953
428,26.1682
428,27.1028
428,19.1589
428,21.2617
428,29.2056
428,27.3364
428,26.4019
428,21.9626
430,19.3023
430,28.1395
430,26.9767
430,23.4884
430,26.0465
430,23.2558
430,28.8372
430,24.6512
430,26.7442
430,26.0465
432,26.6204
432,24.537
432,28.0093
432,22.4537
432,21.2963
432,26.6204
432,25.463
432,24.7685
432,25.2315
432,22.9167
434,23.0415
434,24.8848
434,27.4194
434,23.2719
434,22.5806
434,23.9631
434,24.6544
434,23.9631
434,27.1889
434,23.7327
436,26.1468
436,23.1651
436,23.6239
436,30.5046
436,24.0826
436,25.6881
436,23.1651
436,22.7064
436,25
436,26.3761
438,26.7123
438,23.9726
438,23.0594
438,28.9954
438,25.5708
438,25.1142
438,27.3973
438,23.7443
438,22.831
438,25.3425
440,23.4091
440,20.9091
440,22.5
440,22.9545
440,24.5455
440,24.3182
440,28.4091
440,23.1818
440,25.2273
440,20.2273
442,29.638
442,23.5294
442,22.3982
442,23.9819
442,24.2081
442,20.5882
442,27.6018
442,26.4706
442,24.8869
442,20.362
444,25.4505
444,24.0991
444,25.2252
444,25
444,23.4234
444,25.2252
444,26.5766
444,22.7477
444,27.9279
444,26.1261
446,25.7848
446,21.9731
446,27.3543
446,28.2511
446,24.8879
446,21.7489
446,24.4395
446,25.5605
446,24.8879
446,20.1794
448,23.4375
448,26.3393
448,24.5536
448,24.7768
448,26.5625
448,23.2143
448,22.3214
448,19.4196
448,23.6607
448,26.3393
450,27.3333
450,28
450,23.1111
450,26.4444
450,26
450,24
450,23.1111
450,25.3333
450,20.2222
450,23.1111
452,25.6637
452,23.2301
452,25.6637
452,26.1062
452,21.6814
452,22.5664
452,24.7788
452,25
452,24.7788
452,26.9911
454,24.8899
454,25.9912
454,24.6696
454,27.3128
454,22.0264
454,25.1101
454,24.4493
454,25.1101
454,26.8722
454,22.0264
456,22.5877
456,24.1228
456,23.4649
456,23.9035
456,23.6842
456,23.6842
456,27.193
456,25.6579
456,23.4649
456,23.4649
458,23.1441
458,24.0175
458,26.4192
458,25.5459
458,22.4891
458,27.5109
458,22.4891
458,22.7074
458,22.9258
458,24.0175
460,25.4348
460,26.087
460,27.1739
460,23.4783
460,23.913
460,24.1304
460,20
460,23.6957
460,25.2174
460,25.2174
462,25.7576
462,23.3766
462,23.1602
462,21.4286
462,23.1602
462,25.5411
462,27.0563
462,24.8918
462,21.8615
462,26.4069
464,22.4138
464,23.2759
464,24.7845
464,22.4138
464,25.8621
464,20.2586
464,26.9397
464,26.9397
464,27.5862
464,24.3534
466,25.7511
466,23.8197
466,23.8197
466,28.1116
466,23.176
466,25.1073
466,27.4678
466,25.9657
466,22.5322
466,25.3219
468,22.0085
468,25.8547
468,23.5043
468,25
468,22.6496
468,24.5726
468,25.641
468,22.2222
468,26.7094
468,24.7863
470,20.2128
470,22.766
470,19.5745
470,25.1064
470,26.5957
470,25.9574
470,24.8936
470,24.0426
470,25.3192
470,24.6809
472,23.7288
472,23.5169
472,24.3644
472,27.3305
472,24.1525
472,25.2119
472,25.4237
472,24.3644
472,21.822
472,25.6356
474,25.5274
474,24.2616
474,20.8861
474,23.6287
474,27.6371
474,21.9409
474,21.308
474,29.1139
474,22.9958
474,22.7848
476,22.0588
476,22.8992
476,25
476,22.0588
476,24.1597
476,26.8908
476,25.8403
476,23.5294
476,23.9496
476,27.7311
478,29.4979
478,24.0586
478,26.3598
478,25.3138
478,26.1506
478,26.1506
478,27.1967
478,23.8494
478,25.1046
478,23.0126
480,21.6667
480,24.7917
480,26.25
480,25
480,25.2083
480,26.0417
480,23.125
480,25
480,24.1667
480,25
482,20.332
482,25.5187
482,22.4066
482,22.8216
482,25.1037
482,23.029
482,25.5187
482,23.029
482,24.2739
482,23.2365
484,24.1736
484,26.0331
484,21.281
484,26.6529
484,27.2727
484,26.2397
484,25
484,21.9008
484,27.0661
484,23.5537
486,23.6625
486,24.0741
486,22.0165
486,25.7202
486,24.0741
486,26.1317
486,25.1029
486,25.1029
486,23.0453
486,25.3086
488,24.3852
488,23.9754
488,22.7459
488,23.7705
488,21.7213
488,23.9754
488,29.3033
488,29.5082
488,24.7951
488,24.7951
490,26.3265
490,22.2449
490,24.2857
490,28.5714
490,25.102
490,25.5102
490,20
490,24.6939
490,22.0408
490,26.7347
492,22.1545
492,19.9187
492,25.6098
492,26.8293
492,23.374
492,22.1545
492,24.3902
492,24.5935
492,22.3577
492,26.0163
494,21.0526
494,23.4818
494,21.0526
494,25.7085
494,26.3158
494,25.9109
494,22.6721
494,23.4818
494,25.5061
494,23.6842
496,21.7742
496,20.9677
496,22.7823
496,28.2258
496,28.629
496,26.2097
496,23.7903
496,23.3871
496,25.4032
496,25.2016
498,24.498
498,28.1124
498,23.494
498,23.2932
498,20.0803
498,29.3173
498,24.6988
498,26.506
498,26.9076
498,26.506
500,26.2
500,24.4
500,24.8
500,25.6
500,28
500,26
500,22.2
500,24
500,27.8
500,22.6
502,26.494
502,24.9004
502,23.506
502,23.9044
502,23.9044
502,24.3028
502,24.7012
502,25.0996
502,23.7052
502,27.2908
504,20.4365
504,26.1905
504,23.2143
504,26.3889
504,23.8095
504,23.8095
504,23.4127
504,22.619
504,23.2143
504,26.5873
506,29.0514
506,24.9012
506,23.5178
506,27.2727
506,22.9249
506,26.6798
506,27.4704
506,22.7273
506,25.6917
506,25.4941
508,24.4094
508,25
508,25.9843
508,23.4252
508,25.3937
508,26.1811
508,25.5906
508,23.622
508,23.622
508,25.7874
510,25.6863
510,20.9804
510,22.3529
510,24.1176
510,25.4902
510,21.3725
510,25.4902
510,26.6667
510,25.2941
510,20.1961
512,24.0234
512,26.7578
512,23.0469
512,25.7812
512,22.2656
512,24.0234
512,22.4609
512,26.9531
512,23.4375
512,25
514,25.8755
514,25.4864
514,24.9027
514,25.6809
514,26.2646
514,21.9844
514,22.9572
514,25.2918
514,27.6265
514,22.3735
516,23.4496
516,27.3256
516,24.2248
516,23.062
516,23.8372
516,24.8062
516,24.2248
516,26.938
516,26.1628
516,26.1628
518,24.1313
518,23.5521
518,23.3591
518,23.3591
518,24.1313
518,23.3591
518,23.5521
518,23.9382
518,28.3784
518,23.7452
520,23.2692
520,25.9615
520,24.8077
520,23.0769
520,26.5385
520,23.0769
520,26.7308
520,25.9615
520,24.0385
520,24.2308
522,23.9464
522,26.8199
522,25.6705
522,24.3295
522,25.6705
522,21.4559
522,27.0115
522,26.0536
522,26.0536
522,20.8812
524,25.3817
524,23.6641
524,25.3817
524,25.3817
524,22.1374
524,25
524,27.4809
524,23.2824
524,28.4351
524,25
526,28.327
526,24.5247
526,24.9049
526,26.9962
526,25.4753
526,24.3346
526,25.0951
526,20.7224
526,22.8137
526,22.0532
528,22.1591
528,24.2424
528,22.3485
528,26.3258
528,27.2727
528,25.3788
528,27.8409
528,25.5682
528,23.4848
528,26.5152
530,22.8302
530,23.0189
530,25.0943
530,25.8491
530,22.8302
530,23.5849
530,23.9623
530,26.2264
530,24.1509
530,25.0943
532,26.8797
532,25.9398
532,25.3759
532,24.4361
532,27.0677
532,24.0602
532,25.5639
532,27.6316
532,24.0602
532,26.6917
534,26.5918
534,24.5318
534,25.0936
534,22.0974
534,24.9064
534,25.0936
534,23.4082
534,25.0936
534,23.5955
534,25.8427
536,21.4552
536,24.2537
536,22.3881
536,26.8657
536,23.1343
536,25
536,22.3881
536,24.0672
536,28.1716
536,27.2388
538,23.9777
538,24.5353
538,25.8364
538,21.1896
538,24.3494
538,28.2528
538,26.9517
538,24.9071
538,26.3941
538,24.9071
540,27.4074
540,26.2963
540,23.1481
540,23.5185
540,20.7407
540,25.1852
540,22.5926
540,21.4815
540,25.1852
540,24.0741
542,26.7528
542,24.1697
542,22.5092
542,23.9852
542,23.6162
542,23.2472
542,20.4797
542,26.3838
542,26.1993
542,26.1993
544,29.0441
544,25.7353
544,24.6324
544,22.2426
544,24.4485
544,25.9191
544,25
544,24.8162
544,26.2868
544,27.3897
546,27.4725
546,25.2747
546,23.9927
546,25.641
546,26.9231
546,24.7253
546,29.1209
546,24.5421
546,24.359
546,21.6117
548,25.5474
548,23.7226
548,23.1752
548,24.8175
548,23.5401
548,21.1679
548,23.1752
548,22.6277
548,23.9051
548,20.8029
550,27.8182
550,22.5455
550,23.2727
550,23.6364
550,25.0909
550,23.2727
550,25.4545
550,24.1818
550,25.6364
550,25.0909
552,19.0217
552,25.5435
552,26.2681
552,26.9928
552,20.6522
552,21.7391
552,25.3623
552,26.4493
552,25.3623
552,21.558
554,26.5343
554,22.9242
554,21.8412
554,24.3682
554,23.2852
554,22.7437
554,28.1588
554,25.4513
554,23.2852
554,24.0072
556,26.4389
556,25
556,25
556,26.7986
556,25.8993
556,26.259
556,27.1583
556,21.0432
556,26.4389
556,24.4604
558,27.2401
558,27.5986
558,27.2401
558,27.0609
558,26.3441
558,26.8817
558,25.8064
558,20.9677
558,21.6846
558,25.2688
560,23.2143
560,27.1429
560,24.8214
560,26.0714
560,26.9643
560,25.3571
560,26.9643
560,25
560,29.2857
560,22.6786
562,26.3345
562,25.9786
562,23.4875
562,24.911
562,24.911
562,23.8434
562,25.9786
562,25.6228
562,23.6655
562,24.1993
564,24.2908
564,25.5319
564,24.2908
564,23.4043
564,23.7589
564,28.0142
564,25.8865
564,26.7731
564,25.7092
564,23.227
566,26.6784
566,22.0848
566,24.0283
566,25.0883
566,25.6184
566,24.735
566,25.4417
566,24.2049
566,25.0883
566,25.0883
568,23.7676
568,22.3592
568,26.2324
568,23.5915
568,23.0634
568,27.2887
568,25.3521
568,27.1127
568,24.6479
568,24.8239
570,25.2632
570,26.8421
570,24.386
570,25.614
570,24.0351
570,25.0877
570,21.0526
570,22.1053
570,27.7193
570,23.6842
572,25.5245
572,26.3986
572,24.4755
572,23.6014
572,27.2727
572,22.9021
572,23.2517
572,25.3496
572,24.6504
572,22.7273
574,24.216
574,25.784
574,23.8676
574,24.216
574,23.8676
574,28.5714
574,26.1324
574,22.1254
574,26.8293
574,22.2997
576,26.0417
576,25.8681
576,22.2222
576,22.5694
576,25.1736
576,24.3056
576,23.2639
576,22.7431
576,24.3056
576,28.8194
578,23.1834
578,25.9516
578,22.6644
578,24.2215
578,24.5675
578,25.6055
578,23.7024
578,27.6817
578,23.3564
578,23.8754
580,24.4828
580,25.6897
580,25.8621
580,23.1034
580,26.3793
580,25.5172
580,22.2414
580,28.2759
580,24.8276
580,22.7586
582,24.3986
582,26.4605
582,25.4296
582,22.6804
582,24.2268
582,27.3196
582,28.1787
582,29.8969
582,26.9759
582,25.4296
584,27.5685
584,24.1438
584,23.9726
584,26.8836
584,24.4863
584,23.8014
584,27.0548
584,25.3425
584,24.4863
584,25.6849
586,24.4027
586,24.4027
586,27.4744
586,21.3311
586,25.7679
586,23.2082
586,26.9625
586,20.3072
586,26.4505
586,24.9147
588,20.2381
588,25.8503
588,26.1905
588,21.2585
588,24.8299
588,23.2993
588,25.5102
588,23.4694
588,25.5102
588,27.8912
590,22.3729
590,26.1017
590,25.2542
590,22.5424
590,26.6102
590,21.5254
590,26.1017
590,26.2712
590,25.4237
590,22.8814
592,23.8176
592,24.6622
592,24.4932
592,26.3514
592,27.027
592,27.1959
592,23.4797
592,25.1689
592,25
592,19.4257
594,24.7475
594,22.7273
594,23.7374
594,25.2525
594,24.0741
594,23.7374
594,25.2525
594,24.9158
594,24.4108
594,27.7778
596,25.6711
596,25.6711
596,21.3087
596,22.9866
596,23.6577
596,27.5168
596,23.6577
596,22.8188
596,26.3423
596,25.6711
598,25.0836
598,22.2408
598,25.2508
598,22.408
598,27.2575
598,22.9097
598,27.592
598,26.4214
598,23.7458
598,26.4214
600,21.8333
600,24.3333
600,26.5
600,26
600,24.8333
600,28
600,25.8333
600,22
600,24.6667
600,23.8333
602,23.2558
602,25.7475
602,25.9136
602,23.7542
602,22.7575
602,25.5814
602,25.2492
602,24.0864
602,23.588
602,23.588
604,26.6556
604,27.649
604,24.1722
604,25.3311
604,23.3444
604,24.3377
604,21.6887
604,22.5166
604,27.1523
604,28.1457
606,24.5875
606,25.7426
606,24.0924
606,23.4323
606,25.4125
606,24.7525
606,27.2277
606,25.4125
606,23.5974
606,26.5677
608,24.8355
608,22.5329
608,23.5197
608,28.125
608,24.0132
608,27.3026
608,22.8618
608,23.1908
608,23.5197
608,24.0132
610,25.4098
610,22.6229
610,25.7377
610,23.1148
610,26.2295
610,24.7541
610,25.4098
610,25.2459
610,25.2459
610,26.0656
612,23.2026
612,24.183
612,24.3464
612,26.3072
612,22.8758
612,26.9608
612,23.2026
612,25.817
612,24.6732
612,23.2026
614,23.4528
614,24.7557
614,25.8958
614,24.43
614,25.7329
614,23.2899
614,24.9186
614,24.2671
614,26.0586
614,24.1042
616,23.7013
616,23.539
616,23.7013
616,24.513
616,26.6234
616,20.6169
616,23.7013
616,21.1039
616,22.5649
616,26.1364
618,23.301
618,25.7282
618,23.1392
618,25.4045
618,23.301
618,22.9773
618,24.2718
618,23.1392
618,24.7573
618,26.5372
620,23.871
620,22.7419
620,24.0323
620,25.1613
620,24.8387
620,24.3548
620,24.6774
620,24.0323
620,25
620,27.5806
622,25.0804
622,25.2412
622,25.2412
622,26.3666
622,26.045
622,26.045
622,26.3666
622,23.6334
622,25.7235
622,23.955
624,22.9167
624,26.1218
624,26.2821
624,27.4038
624,26.7628
624,28.0449
624,24.6795
624,27.7244
624,21.7949
624,23.5577
626,24.2812
626,24.2812
626,20.7668
626,25.7188
626,23.1629
626,23.0032
626,24.6006
626,23.6422
626,24.4409
626,27.6358
628,23.4076
628,24.0446
628,25.6369
628,28.5032
628,22.4522
628,25.9554
628,22.1338
628,22.293
628,22.7707
628,21.3376
630,23.9683
630,23.0159
630,25.0794
630,24.6032
630,25.0794
630,26.5079
630,25.7143
630,25.873
630,25.7143
630,25.7143
632,26.7405
632,23.2595
632,23.7342
632,23.8924
632,23.1013
632,23.4177
632,26.1076
632,23.8924
632,25.9494
632,26.5823
634,24.6057
634,25.3943
634,25.0789
634,25.552
634,26.183
634,27.6025
634,23.0284
634,26.183
634,25.8675
634,27.918
636,26.1006
636,21.2264
636,23.5849
636,23.7421
636,22.4843
636,23.2704
636,27.2013
636,24.3711
636,24.0566
636,25
638,28.2132
638,26.0188
638,26.8025
638,27.5862
638,25.0784
638,26.1756
638,27.2727
638,24.6082
638,25.5486
638,25.2351
640,25.625
640,24.6875
640,26.0938
640,25.3125
640,24.8438
640,25.9375
640,25
640,24.2188
640,27.5
640,25.4687
642,22.1184
642,26.6355
642,24.7664
642,26.324
642,26.0125
642,25.5452
642,24.6106
642,29.4393
642,23.053
642,27.2586
644,24.6894
644,26.5528
644,25.3106
644,23.1366
644,27.4845
644,24.8447
644,23.2919
644,23.913
644,24.2236
644,24.2236
646,23.2198
646,23.6842
646,21.3622
646,22.4458
646,26.6254
646,24.9226
646,25.5418
646,26.3158
646,23.6842
646,23.9938
648,22.6852
648,24.8457
648,24.3827
648,25.6173
648,25.463
648,25.9259
648,24.8457
648,24.0741
648,25.3086
648,26.0802
650,26.7692
650,23.6923
650,25.0769
650,23.5385
650,23.5385
650,24.3077
650,26.4615
650,24.3077
650,24
650,25.8462
652,24.8466
652,25
652,23.4663
652,25.7669
652,26.3804
652,26.8405
652,24.6933
652,26.3804
652,22.546
652,26.0736
654,25.9939
654,23.3945
654,24.3119
654,24.0061
654,22.9358
654,25.0765
654,24.6177
654,23.7003
654,24.0061
654,23.7003
656,23.7805
656,25.7622
656,26.0671
656,25.6098
656,21.7988
656,26.0671
656,24.8476
656,24.8476
656,27.2866
656,22.4085
658,23.2523
658,23.7082
658,25.076
658,24.1641
658,26.1398
658,27.5076
658,25.228
658,25.228
658,22.0365
658,23.2523
660,23.9394
660,23.9394
660,27.1212
660,27.4242
660,23.7879
660,25.303
660,23.7879
660,25.1515
660,23.9394
660,25.6061
662,25.2266
662,25.3776
662,25.3776
662,25.5287
662,23.1118
662,23.8671
662,25.9819
662,23.1118
662,25.0755
662,23.4139
664,25.4518
664,23.9458
664,21.0843
664,22.741
664,21.3855
664,24.3976
664,24.247
664,22.741
664,24.247
664,25
666,24.1742
666,26.7267
666,22.5225
666,26.7267
666,27.3273
666,26.7267
666,24.6246
666,23.7237
666,24.4745
666,23.7237
668,22.4551
668,25.1497
668,21.7066
668,24.2515
668,25.2994
668,23.6527
668,25.4491
668,25.1497
668,24.1018
668,26.6467
670,25.0746
670,25.6716
670,23.7313
670,26.7164
670,24.1791
670,21.6418
670,28.9552
670,24.9254
670,24.7761
670,22.9851
672,26.6369
672,26.3393
672,25
672,23.6607
672,24.8512
672,25.1488
672,24.8512
672,25.1488
672,27.5298
672,26.0417
674,23.8872
674,24.6291
674,24.7774
674,24.7774
674,24.9258
674,25.0742
674,29.0801
674,22.8487
674,25.816
674,24.184
676,24.4083
676,25
676,24.4083
676,25
676,25.2959
676,23.0769
676,25.8876
676,24.8521
676,25
676,26.3314
678,24.6313
678,24.1888
678,24.4838
678,23.8938
678,23.3038
678,24.3363
678,22.8614
678,24.7788
678,25.0737
678,24.3363
680,23.2353
680,27.9412
680,26.3235
680,22.5
680,23.2353
680,25
680,28.0882
680,24.8529
680,22.3529
680,24.2647
682,24.3402
682,26.5396
682,28.8856
682,24.9267
682,25.3666
682,26.0997
682,27.1261
682,25.5132
682,26.5396
682,25.2199
684,25.4386
684,23.9766
684,24.5614
684,26.3158
684,27.3392
684,24.5614
684,26.462
684,24.5614
684,22.3684
684,27.7778
686,26.2391
686,22.0117
686,23.0321
686,25.2187
686,24.9271
686,25.5102
686,25.9475
686,22.449
686,24.7813
686,28.4257
688,25.1453
688,25.1453
688,23.4012
688,23.5465
688,22.2384
688,24.7093
688,27.3256
688,23.2558
688,25.1453
688,26.7442
690,26.087
690,23.1884
690,24.4928
690,26.6667
690,25.3623
690,24.9275
690,27.2464
690,24.058
690,27.971
690,24.7826
692,24.8555
692,26.7341
692,24.2775
692,26.8786
692,24.5665
692,26.0116
692,26.7341
692,26.3006
692,25.1445
692,23.5549
694,25.6484
694,25.9366
694,23.9193
694,27.0893
694,23.7752
694,23.7752
694,24.3516
694,24.928
694,22.3343
694,23.9193
696,24.569
696,25
696,25.2874
696,23.8506
696,25.1437
696,25.1437
696,22.9885
696,23.1322
696,24.569
696,24.7126
698,24.9284
698,25.5014
698,25.0716
698,24.7851
698,23.0659
698,25.2149
698,24.7851
698,27.6504
698,25.2149
698,25.2149
700,23.2857
700,23.2857
700,24.2857
700,25.8571
700,22.2857
700,24.1429
700,26
700,25.7143
700,21.4286
700,23.5714
702,28.3476
702,21.9373
702,22.9345
702,23.3618
702,27.208
702,22.3647
702,26.3533
702,24.5014
702,25.7835
702,24.5014
704,24.4318
704,25
704,24.2898
704,23.0114
704,22.7273
704,25.4261
704,23.8636
704,24.2898
704,23.7216
704,24.5739
706,28.0453
706,25.6374
706,25.3541
706,23.5127
706,23.3711
706,23.3711
706,21.6714
706,23.3711
706,25.0708
706,26.204
708,26.2712
708,24.8588
708,26.2712
708,23.8701
708,23.3051
708,26.5537
708,24.2938
708,22.5989
708,23.0226
708,23.7288
710,23.0986
710,23.8028
710,19.8592
710,25.0704
710,24.7887
710,25.493
710,26.9014
710,23.5211
710,28.4507
710,24.9296
712,25.4213
712,21.0674
712,23.736
712,23.8764
712,24.4382
712,26.264
712,27.1067
712,25.7022
712,25.4213
712,24.0169
714,23.6695
714,26.0504
714,25.6303
714,23.9496
714,26.3305
714,27.8711
714,21.7087
714,23.8095
714,28.4314
714,24.3697
716,25.9777
716,26.257
716,23.0447
716,25.419
716,23.0447
716,21.3687
716,27.3743
716,23.6034
716,26.1173
716,25.1397
718,25.766
718,23.9554
718,23.8162
718,27.9944
718,24.5125
718,25.0696
718,25.2089
718,24.234
718,23.8162
718,26.8802
720,22.9167
720,24.5833
720,25.9722
720,25
720,26.5278
720,23.75
720,25
720,25
720,21.5278
720,21.9444
722,25.6233
722,24.7922
722,23.4072
722,23.8227
722,22.4377
722,26.3158
722,25.0693
722,23.5457
722,22.9917
722,25.9003
724,25.4144
724,25.5525
724,22.2376
724,25.4144
724,26.5193
724,26.7956
724,22.5138
724,25.6906
724,22.7901
724,22.9282
726,24.9311
726,25.3444
726,26.1708
726,24.2424
726,25.0689
726,24.6556
726,23.416
726,29.6143
726,26.7218
726,24.9311
728,27.3352
728,23.489
728,25.6868
728,25
728,25.2747
728,21.8407
728,25.1374
728,26.9231
728,24.1758
728,22.1154
730,23.4247
730,24.7945
730,25.0685
730,24.7945
730,24.7945
730,23.8356
730,23.0137
730,24.7945
730,25.2055
730,25.7534
732,24.7268
732,24.4536
732,23.3607
732,25.1366
732,22.9508
732,22.6776
732,25.4098
732,22.541
732,24.7268
732,24.5902
734,26.2943
734,24.9319
734,25.2044
734,24.9319
734,21.2534
734,26.0218
734,23.7057
734,23.5695
734,26.9755
734,24.5232
736,23.7772
736,25.4076
736,24.3207
736,24.3207
736,24.0489
736,27.5815
736,24.7283
736,22.1467
736,26.6304
736,24.3207
738,23.5772
738,24.3902
738,24.3902
738,27.1003
738,25.8808
738,24.6612
738,24.1192
738,25.3388
738,26.4228
738,25.6098
740,26.0811
740,24.1892
740,23.6486
740,24.4595
740,25.6757
740,26.7568
740,26.6216
740,22.5676
740,22.7027
740,24.1892
742,23.3154
742,24.2588
742,27.3585
742,24.2588
742,27.0889
742,28.841
742,27.628
742,22.1024
742,23.1806
742,24.9326
744,25.9409
744,26.4785
744,23.2527
744,27.2849
744,23.5215
744,25.9409
744,23.3871
744,24.4624
744,22.5806
744,25.5376
746,24.3968
746,25.067
746,23.7265
746,27.2118
746,26.8097
746,25.8713
746,23.9946
746,28.6863
746,23.0563
746,23.3244
748,25.8021
748,25
748,25
748,25.1337
748,24.3316
748,24.7326
748,25.6684
748,23.3957
748,24.5989
748,25.4011
750,26.6667
750,27.3333
750,26.1333
750,25.2
750,27.4667
750,23.4667
750,22.6667
750,23.8667
750,23.0667
750,24.5333
752,20.6117
752,26.1968
752,24.0691
752,26.3298
752,23.1383
752,25.266
752,26.7287
752,23.9362
752,25.5319
752,26.5957
754,25.1989
754,27.1883
754,22.9443
754,26.2599
754,22.679
754,24.4032
754,25.8621
754,24.6684
754,22.2812
754,24.2706
756,21.5608
756,24.2063
756,23.1481
756,25.2645
756,24.7354
756,25.5291
756,24.3386
756,24.3386
756,24.3386
756,28.3069
758,24.5383
758,25.4617
758,27.4406
758,21.7678
758,23.0871
758,26.2533
758,25.1979
758,25.5937
758,22.6913
758,28.496
760,23.8158
760,21.8421
760,25.9211
760,24.7368
760,26.1842
760,26.0526
760,24.6053
760,24.2105
760,24.2105
760,26.0526
762,23.8845
762,24.9344
762,25.7218
762,23.3596
762,24.4094
762,25.3281
762,26.1155
762,24.9344
762,23.7533
762,25.7218
764,23.5602
764,26.9634
764,24.6073
764,23.1675
764,23.822
764,23.1675
764,24.4764
764,25.9162
764,26.4398
764,23.4293
766,22.846
766,23.4987
766,25.3264
766,20.6266
766,26.7624
766,26.6319
766,25.5875
766,23.8903
766,25.1958
766,25.3264
768,25.3906
768,24.6094
768,25.9115
768,23.0469
768,24.4792
768,23.3073
768,20.4427
768,23.5677
768,22.1354
768,23.3073
770,23.3766
770,25.1948
770,23.5065
770,24.8052
770,25.8442
770,24.6753
770,23.8961
770,25.7143
770,25.5844
770,25.7143
772,23.4456
772,25
772,23.057
772,25.2591
772,28.1088
772,25.6477
772,25.2591
772,25.6477
772,24.7409
772,23.9637
774,25.4522
774,26.7442
774,28.2946
774,26.2274
774,26.4858
774,23.6434
774,27.0026
774,24.5478
774,23.9018
774,23.5142
776,25.1289
776,24.6134
776,23.067
776,25.1289
776,23.7113
776,24.6134
776,25.6443
776,23.9691
776,23.7113
776,25.5155
778,28.4062
778,25.7069
778,24.8072
778,25.7069
778,23.6504
778,23.5219
778,26.2211
778,25.1928
778,26.2211
778,25.3213
780,24.6154
780,23.2051
780,22.5641
780,24.4872
780,25.3846
780,23.5897
780,25.2564
780,23.9744
780,26.5385
780,26.1538
782,21.867
782,24.4246
782,24.2967
782,21.867
782,24.2967
782,25.8312
782,23.913
782,22.89
782,25.1918
782,23.7852
784,23.4694
784,24.3622
784,25.6378
784,25.6378
784,22.3214
784,24.2347
784,24.8724
784,26.4031
784,23.9796
784,27.551
786,26.4631
786,24.3003
786,21.1196
786,26.8448
786,21.7557
786,23.1552
786,25.0636
786,23.9186
786,26.972
786,26.2087
788,21.8274
788,25.1269
788,22.9695
788,25.7614
788,25.6345
788,27.5381
788,28.4264
788,22.2081
788,26.9036
788,24.4924
790,26.8354
790,22.1519
790,24.1772
790,24.8101
790,26.4557
790,24.4304
790,28.9873
790,26.076
790,25.5696
790,21.2658
792,26.3889
792,23.9899
792,21.4646
792,22.8535
792,25.5051
792,24.7475
792,27.904
792,23.4848
792,25.6313
792,22.2222
794,24.6851
794,26.9521
794,25.5668
794,26.4484
794,21.5365
794,25.3149
794,24.6851
794,23.0479
794,23.2997
794,23.4257
796,24.4975
796,25.3769
796,22.4874
796,25.6281
796,22.8643
796,24.1206
796,25.7538
796,25
796,25.5025
796,26.8844
798,23.0576
798,23.5589
798,25.188
798,26.1905
798,25.3133
798,26.6917
798,24.812
798,24.0602
798,26.5664
798,24.1855
800,23.375
800,24.625
800,24.125
800,26
800,24.375
800,20.625
800,24.375
800,23.5
800,26.375
800,23
802,24.9377
802,25.6858
802,25.6858
802,26.6833
802,21.8204
802,23.0673
802,23.5661
802,26.808
802,25.4364
802,21.5711
804,24.6269
804,26.6169
804,25
804,22.6368
804,24.1294
804,26.1194
804,26.2438
804,24.6269
804,24.2537
804,23.5075
806,24.8139
806,22.2084
806,25.6824
806,26.799
806,23.0769
806,24.1935
806,23.5732
806,26.799
806,26.799
806,23.0769
808,27.2277
808,25.2475
808,23.3911
808,26.6089
808,23.2673
808,25.9901
808,26.3614
808,23.3911
808,23.2673
808,24.1337
810,24.6914
810,27.037
810,26.1728
810,24.1975
810,24.4444
810,22.8395
810,21.7284
810,26.1728
810,25.0617
810,24.6914
812,23.7685
812,26.3547
812,24.1379
812,23.5222
812,25.8621
812,25
812,25.9852
812,23.2759
812,26.601
812,25.1232
814,22.7273
814,24.9386
814,27.6413
814,21.6216
814,27.3956
814,23.7101
814,24.57
814,22.7273
814,24.57
814,24.3243
816,24.1422
816,26.9608
816,25.7353
816,25
816,26.7157
816,24.6324
816,25.6127
816,27.3284
816,24.0196
816,26.7157
818,20.7824
818,23.8386
818,21.6381
818,25.5501
818,24.8166
818,26.6504
818,25.0611
818,22.9829
818,26.4059
818,22.6161
820,23.6585
820,23.6585
820,27.6829
820,25
820,25.2439
820,25.8537
820,23.2927
820,21.5854
820,25.122
820,23.6585
822,24.6959
822,24.5742
822,24.3309
822,23.4793
822,27.9805
822,24.8175
822,23.236
822,24.6959
822,22.871
822,23.601
824,25.8495
824,23.0583
824,23.301
824,23.4223
824,25.4854
824,24.2718
824,25.8495
824,20.7524
824,29.1262
824,24.2718
826,26.3923
826,26.7554
826,21.4286
826,26.7554
826,24.9395
826,26.2712
826,25.3027
826,26.1501
826,24.3341
826,24.092
828,23.913
828,24.6377
828,29.9517
828,23.5507
828,24.6377
828,25.2415
828,24.6377
828,23.6715
828,24.1546
828,24.6377
830,25.4217
830,22.1687
830,20.1205
830,25.6627
830,23.6145
830,25.4217
830,25.9036
830,25.3012
830,24.6988
830,25.0602
832,25
832,24.1587
832,22.8365
832,23.5577
832,24.6394
832,24.0385
832,24.1587
832,23.1971
832,25.1202
832,25.3606
834,25.1799
834,26.0192
834,25.8993
834,22.9017
834,27.458
834,24.8201
834,25.8993
834,22.6619
834,25.4197
834,24.94
836,23.6842
836,25.8373
836,24.8804
836,23.2057
836,21.6507
836,23.2057
836,24.1627
836,22.3684
836,26.0766
836,23.6842
838,19.9284
838,24.463
838,26.1336
838,27.9236
838,24.105
838,26.8496
838,24.463
838,23.2697
838,27.9236
838,22.673
840,26.5476
840,22.1429
840,20.7143
840,25.7143
840,24.1667
840,28.2143
840,26.1905
840,25.7143
840,24.881
840,25.2381
842,25.0594
842,21.6152
842,26.6033
842,24.5843
842,28.9786
842,24.9406
842,25.1781
842,28.9786
842,23.6342
842,25.6532
844,22.2749
844,25.8294
844,23.4597
844,25.1185
844,23.3412
844,24.0521
844,23.6967
844,26.1848
844,24.5261
844,24.763
846,24.9409
846,23.6407
846,25.8865
846,24.8227
846,26.7139
846,23.7589
846,26.8322
846,24.2317
846,24.7045
846,24.2317
848,24.5283
848,28.184
848,23.467
848,25.9434
848,24.8821
848,23.7028
848,25.2358
848,27.3585
848,23.1132
848,25.4717
850,26.3529
850,23.4118
850,24.5882
850,25.0588
850,25.8824
850,22.5882
850,26
850,25.5294
850,26.1176
850,25.0588
852,24.2958
852,24.4131
852,22.4178
852,23.8263
852,27.6995
852,27.4648
852,26.0563
852,24.2958
852,25.4695
852,25.7042
854,24.356
854,24.9415
854,23.8876
854,23.8876
854,24.7073
854,24.356
854,25.2927
854,22.5995
854,27.9859
854,23.7705
856,25.8178
856,26.285
856,22.7804
856,23.2477
856,26.5187
856,25.9346
856,24.5327
856,25.9346
856,24.4159
856,23.4813
858,25.641
858,23.4266
858,25.5245
858,24.2424
858,26.5734
858,25.1748
858,24.4755
858,25.1748
858,25.1748
858,26.4569
860,23.7209
860,24.7674
860,25.5814
860,26.7442
860,25.1163
860,24.186
860,29.186
860,25.9302
860,25.3488
860,25.4651
862,24.478
862,22.9698
862,23.4339
862,24.2459
862,23.7819
862,23.4339
862,24.594
862,25.29
862,25.406
862,22.6218
864,25.2315
864,25.463
864,26.5046
864,25.3472
864,27.0833
864,24.8843
864,26.0417
864,23.0324
864,23.7269
864,23.3796
866,24.7113
866,24.9423
866,24.8268
866,23.6721
866,23.6721
866,23.5566
866,25.4042
866,24.9423
866,26.9053
866,23.903
868,24.3088
868,25.2304
868,24.0783
868,24.7696
868,23.1567
868,22.5806
868,26.3825
868,24.7696
868,23.1567
868,25.2304
870,23.7931
870,20.4598
870,26.4368
870,25.0575
870,23.5632
870,21.954
870,24.023
870,25.1724
870,25.2874
870,23.4483
872,25.6881
872,28.211
872,25.8028
872,24.4266
872,24.4266
872,25
872,23.2798
872,25
872,24.656
872,25
874,24.5995
874,24.9428
874,25.286
874,24.714
874,23.6842
874,28.6041
874,24.8284
874,26.4302
874,24.5995
874,23.2265
876,23.9726
876,24.4292
876,24.2009
876,26.8265
876,24.3151
876,25
876,23.1735
876,22.2603
876,22.1461
876,24.6575
878,25.6264
878,20.9567
878,28.0182
878,24.8292
878,23.5763
878,24.3736
878,24.9431
878,25.7403
878,22.0957
878,21.8679
880,24.8864
880,26.4773
880,23.75
880,28.0682
880,24.6591
880,24.4318
880,22.1591
880,24.0909
880,25.6818
880,22.2727
882,27.2109
882,24.6032
882,24.263
882,25.5102
882,25.2834
882,24.8299
882,23.356
882,24.6032
882,24.7166
882,25.737
884,26.4706
884,26.1312
884,27.3756
884,26.4706
884,26.3575
884,25.1131
884,26.6968
884,24.7738
884,25.3394
884,26.3575
886,24.8307
886,26.6366
886,24.1535
886,26.298
886,24.3792
886,24.2664
886,25.0564
886,26.5237
886,26.6366
886,27.6524
888,24.0991
888,24.5495
888,26.464
888,24.7748
888,24.5495
888,24.4369
888,21.509
888,23.6486
888,25.6757
888,26.2387
890,23.1461
890,25.1685
890,25.2809
890,25.3933
890,26.0674
890,24.1573
890,25.618
890,25.1685
890,23.1461
890,25.2809
892,24.8879
892,23.7668
892,25.4484
892,25.6726
892,24.3274
892,25
892,23.991
892,25.2242
892,24.2152
892,24.1031
894,24.9441
894,25.0559
894,25.7271
894,24.8322
894,25.1678
894,25.3915
894,25.7271
894,20.1342
894,23.8255
894,27.8524
896,25.8929
896,24.2188
896,26.8973
896,26.2277
896,24.442
896,24.6652
896,27.7902
896,24.3304
896,23.9955
896,26.6741
898,22.7171
898,24.4989
898,25.7238
898,26.8374
898,25.7238
898,25.6125
898,22.4944
898,24.833
898,26.6147
898,25.7238
900,22.1111
900,24.2222
900,26.8889
900,22.7778
900,25.3333
900,26.1111
900,24.4444
900,26.3333
900,25.5556
900,23.4444
902,24.9446
902,24.9446
902,25.1663
902,26.1641
902,25.1663
902,26.0532
902,23.6142
902,26.0532
902,26.1641
902,23.9468
904,24.7788
904,26.2168
904,25.9956
904,26.2168
904,24.6681
904,26.9911
904,24.2257
904,25.5531
904,22.4558
904,23.3407
906,24.0618
906,23.5099
906,23.9514
906,25.8278
906,21.4128
906,25.7174
906,26.4901
906,25.0552
906,25.4967
906,26.8212
908,22.3568
908,23.8987
908,25.6608
908,25.9912
908,26.7621
908,23.7885
908,26.2115
908,25.8811
908,24.8899
908,25.8811
910,27.2527
910,24.1758
910,24.5055
910,25.7143
910,24.6154
910,22.5275
910,20.7692
910,24.1758
910,23.6264
910,22.3077
912,23.0263
912,26.0965
912,25.3289
912,23.2456
912,24.2325
912,24.4518
912,25.2193
912,25.3289
912,25.5482
912,28.2895
914,23.6324
914,23.3042
914,26.6958
914,23.4136
914,24.9453
914,23.523
914,26.1488
914,23.523
914,24.7265
914,22.2101
916,25
916,26.2009
916,27.5109
916,24.6725
916,26.7467
916,25.2183
916,24.345
916,26.0917
916,25.8734
916,23.1441
918,22.8758
918,24.5098
918,22.7669
918,24.2919
918,26.1438
918,24.6187
918,24.5098
918,26.6885
918,23.9651
918,23.7473
920,24.7826
920,24.4565
920,25.2174
920,24.0217
920,23.2609
920,23.8043
920,22.8261
920,26.9565
920,22.3913
920,21.9565
922,21.3666
922,22.5597
922,26.1388
922,24.9458
922,24.9458
922,26.3557
922,21.8004
922,25.5965
922,26.0304
922,24.6204
924,24.3506
924,25.2165
924,24.7836
924,25.7576
924,25.6494
924,26.9481
924,25.8658
924,28.1385
924,25
924,24.6753
926,24.406
926,24.946
926,25.054
926,23.4341
926,23.5421
926,20.6264
926,26.3499
926,23.6501
926,26.4579
926,26.5659
928,25.7543
928,24.4612
928,23.4914
928,26.2931
928,24.6767
928,24.8922
928,24.7845
928,24.1379
928,23.9224
928,26.1853
930,23.4409
930,23.5484
930,24.4086
930,24.1935
930,26.0215
930,27.7419
930,23.0108
930,23.6559
930,26.8817
930,25.0538
932,24.6781
932,23.2833
932,25.4292
932,23.3906
932,26.9313
932,26.6094
932,25.5365
932,22.103
932,25.9657
932,24.3562
934,24.6253
934,25.6959
934,25.9101
934,22.2698
934,26.0171
934,25.2677
934,25.3747
934,24.6253
934,23.6617
934,26.0171
936,24.4658
936,23.5043
936,25
936,25.7479
936,24.6795
936,24.5726
936,24.8932
936,25
936,24.2521
936,24.0385
938,24.7335
938,25.9062
938,25.9062
938,25.2665
938,24.5203
938,23.9872
938,25.4797
938,23.8806
938,25.7996
938,26.1194
940,24.6809
940,24.8936
940,23.1915
940,22.234
940,22.5532
940,24.5745
940,23.8298
940,23.7234
940,26.8085
940,23.7234
942,25.3715
942,25.2654
942,24.8408
942,23.9915
942,23.673
942,25.5839
942,22.6115
942,23.5669
942,26.7516
942,26.9639
944,23.3051
944,22.7754
944,26.0593
944,25.4237
944,27.8602
944,26.9068
944,25.5297
944,25.3178
944,25.7415
944,27.8602
946,23.9958
946,24.8414
946,24.8414
946,25.0529
946,23.8901
946,26.5328
946,28.5412
946,23.4672
946,26.4271
946,26.6385
948,26.0549
948,27.3207
948,25.6329
948,25.211
948,23.3122
948,24.5781
948,25.4219
948,26.0549
948,26.5823
948,24.4726
950,23.7895
950,22.6316
950,27.2632
950,22.2105
950,25.3684
950,25.8947
950,23.5789
950,22
950,24.7368
950,23.6842
952,26.9958
952,24.0546
952,25.4202
952,24.5798
952,23.7395
952,24.5798
952,26.5756
952,25.105
952,24.5798
952,24.6849
954,24.9476
954,24.5283
954,28.0922
954,26.5199
954,20.8595
954,25.5765
954,24.3187
954,23.6897
954,25.0524
954,22.4319
956,24.477
956,24.6862
956,22.3849
956,25.4184
956,25.8368
956,26.8828
956,25.3138
956,23.3264
956,23.8494
956,24.8954
958,24.8434
958,24.2171
958,22.9645
958,27.1399
958,23.7996
958,25.6785
958,22.1294
958,25.5741
958,25.0522
958,26.618
960,23.75
960,24.8958
960,24.4792
960,23.9583
960,25.9375
960,22.6042
960,24.4792
960,24.2708
960,24.375
960,25.2083
962,25.5717
962,25.3638
962,24.0125
962,25.7796
962,25.7796
962,24.3243
962,25.052
962,25.5717
962,24.4283
962,24.4283
964,23.2365
964,21.6805
964,23.6515
964,22.7178
964,24.4813
964,28.2158
964,26.1411
964,24.6888
964,23.9627
964,26.3485
966,25.3623
966,23.2919
966,23.499
966,22.8778
966,24.5342
966,23.6025
966,23.6025
966,25.1553
966,25.6729
966,26.294
968,25.6198
968,26.5496
968,23.4504
968,24.6901
968,26.1364
968,23.1405
968,24.1736
968,22.9339
968,23.7603
968,28.0992
970,24.5361
970,24.6392
970,24.6392
970,23.8144
970,25.4639
970,24.3299
970,26.5979
970,25.2577
970,24.433
970,26.3918
972,23.5597
972,26.3374
972,24.4856
972,25.3086
972,25.7202
972,25.823
972,24.7942
972,26.749
972,24.8971
972,25.2058
974,25.6674
974,24.846
974,24.23
974,24.23
974,24.846
974,24.9487
974,25.6674
974,23.922
974,24.6407
974,24.846
976,23.9754
976,23.5656
976,24.7951
976,25.2049
976,25.7172
976,25
976,24.5902
976,23.0533
976,25.2049
976,23.9754
978,24.6421
978,23.9264
978,23.4151
978,24.7444
978,25.3579
978,24.6421
978,24.8466
978,22.2904
978,26.5849
978,25.2556
980,24.3878
980,23.7755
980,24.5918
980,24.898
980,25.2041
980,25.5102
980,27.9592
980,23.3673
980,24.2857
980,24.6939
982,24.1344
982,24.9491
982,23.5234
982,26.6802
982,25.6619
982,22.6069
982,24.4399
982,24.3381
982,23.6253
982,25.5601
984,25.6098
984,25.813
984,23.1707
984,25
984,25.813
984,25.7114
984,26.2195
984,25.6098
984,25.4065
984,26.1179
986,24.4422
986,24.645
986,23.9351
986,20.6897
986,24.645
986,23.8337
986,25.9635
986,24.645
986,24.3408
986,23.7323
988,25.3036
988,23.3806
988,26.3158
988,23.7854
988,25.3036
988,24.8988
988,25.3036
988,23.6842
988,25.5061
988,24.8988
990,24.8485
990,26.4646
990,27.3737
990,23.9394
990,26.1616
990,25.1515
990,25.4545
990,23.5354
990,24.6465
990,23.0303
992,23.5887
992,25.7056
992,24.496
992,26.2097
992,22.2782
992,25.2016
992,26.8145
992,27.2177
992,26.3105
992,23.5887
994,24.4467
994,26.1569
994,25.7545
994,24.7485
994,23.1388
994,25.3521
994,21.2274
994,27.163
994,23.1388
994,23.7425
996,24.6988
996,24.6988
996,25.4016
996,25.4016
996,26.2048
996,25.1004
996,22.8916
996,24.8996
996,25.8032
996,24.8996
998,23.0461
998,24.5491
998,22.8457
998,22.3447
998,23.0461
998,23.4469
998,21.7435
998,24.7495
998,25.7515
998,23.1463
1000,25.2
1000,25.4
1000,25.4
1000,25.8
1000,25.5
1000,23.4
1000,25.9
1000,24.4
1000,24.4
1000,25.3
